["busununkiyafetleri",
"mishmelov",
"vademecumofficial",
"yesilvenusungezegeni",
"olumsuzlermabedi",
"mishaxhim",
"kxllmxsha",
"haru._.desu",
"rsa.serisi.manga",
"ayse_ocal_czm",
"maggie_is_not_a_pumpkin",
"its.me.bloody.lily",
"i_am_beba",
"mishapmyedek",
"kiz.cetesi.yardim.projesi",
"k.e.d.official",
"siyahallik.beyazmaske",
"4n1k_official",
"neslicantay",
"netflixatiyethegift",
"epsilonyayinevi",
"kitap365com",
"yesimpm",
"nihallpm",
"edizbaha",
"solmazsehriban",
"p3bgjo",
"mishapm"]